{"data":[{"id":1,"name":"Vivienne Wisozk I","created_at":{"date":"2019-03-20 03:38:32.000000","timezone_type":3,"timezone":"UTC"},"updated_at":{"date":"2019-03-20 03:38:32.000000","timezone_type":3,"timezone":"UTC"},"companies":[{"id":4,"name":"Roberts-Bogisich","created_at":{"date":"2019-03-20 03:38:32.000000","timezone_type":3,"timezone":"UTC"},"updated_at":{"date":"2019-03-20 03:38:32.000000","timezone_type":3,"timezone":"UTC"}}]}],"links":{"first":"http:\/\/192.168.10.10\/api\/v1\/users?page=1","last":"http:\/\/192.168.10.10\/api\/v1\/users?page=10","prev":null,"next":"http:\/\/192.168.10.10\/api\/v1\/users?page=2"},"meta":{"current_page":1,"from":1,"last_page":10,"path":"http:\/\/192.168.10.10\/api\/v1\/users","per_page":1,"to":1,"total":10}}